%YAML 1.1
%TAG !u! tag:unity3d.com,2011:
--- !u!114 &11400000
MonoBehaviour:
  m_ObjectHideFlags: 0
  m_CorrespondingSourceObject: {fileID: 0}
  m_PrefabInstance: {fileID: 0}
  m_PrefabAsset: {fileID: 0}
  m_GameObject: {fileID: 0}
  m_Enabled: 1
  m_EditorHideFlags: 0
  m_Script: {fileID: 11500000, guid: cd9bed23f9697e34c9c47e31ab93ded0, type: 3}
  m_Name: Player 1 Turn
  m_EditorClassIdentifier: 
  player: {fileID: 0}
  currentPhase: {fileID: 11400000, guid: c1eaec6f40e9f7e44a21ade600315a83, type: 2}
  phases:
  - {fileID: 11400000, guid: 400deee57677844418f7a31e44d881a3, type: 2}
  - {fileID: 11400000, guid: 5dc0ec8eb6cea79489051f81b62948a0, type: 2}
  turnStartActions:
  - {fileID: 11400000, guid: 75a4fd10e965f594db5688d344fcd215, type: 2}
