%YAML 1.1
%TAG !u! tag:unity3d.com,2011:
--- !u!1045 &1
EditorBuildSettings:
  m_ObjectHideFlags: 0
  serializedVersion: 2
  m_Scenes:
  - enabled: 1
    path: Assets/_Breakawio/_Scenes/Bootstrap.unity
    guid: 0b4619157b8bb07429ce0cdb427bb9d7
  - enabled: 1
    path: Assets/_Breakawio/_Scenes/Login.unity
    guid: 596bd4550e2a00a44ad1fb0dd89faf6a
  - enabled: 1
    path: Assets/_Breakawio/_Scenes/MainMenu.unity
    guid: 57008d0c092665748b1edde6dd6a0be7
  - enabled: 1
    path: Assets/_Breakawio/_Scenes/Game.unity
    guid: 9850a607e2e912442bdf4918d483566d
  m_configObjects: {}
