%YAML 1.1
%TAG !u! tag:unity3d.com,2011:
--- !u!114 &11400000
MonoBehaviour:
  m_ObjectHideFlags: 0
  m_CorrespondingSourceObject: {fileID: 0}
  m_PrefabInternal: {fileID: 0}
  m_GameObject: {fileID: 0}
  m_Enabled: 1
  m_EditorHideFlags: 0
  m_Script: {fileID: 11500000, guid: 46cd5fadac123ae4ba131a5972264ce9, type: 3}
  m_Name: Enemy Player Card Holder
  m_EditorClassIdentifier: 
  handGrid: {fileID: 11400000, guid: c761dabb5240a0e448a609c254c6834b, type: 2}
  resourcesGrid: {fileID: 11400000, guid: e06ebe64cef76d34ebf7970b353bb441, type: 2}
  downGrid: {fileID: 11400000, guid: dc4200242f68d0a4ca1953bcaa372fcc, type: 2}
