%YAML 1.1
%TAG !u! tag:unity3d.com,2011:
--- !u!114 &11400000
MonoBehaviour:
  m_ObjectHideFlags: 0
  m_CorrespondingSourceObject: {fileID: 0}
  m_PrefabInternal: {fileID: 0}
  m_GameObject: {fileID: 0}
  m_Enabled: 1
  m_EditorHideFlags: 0
  m_Script: {fileID: 11500000, guid: 46cd5fadac123ae4ba131a5972264ce9, type: 3}
  m_Name: Local Player Card Holder
  m_EditorClassIdentifier: 
  handGrid: {fileID: 11400000, guid: 437a7dfe2ef9bd647b37eeeb3e7d0a2b, type: 2}
  resourcesGrid: {fileID: 11400000, guid: 61ef70f0d6530044692f3bb17c950b8f, type: 2}
  downGrid: {fileID: 11400000, guid: dc4200242f68d0a4ca1953bcaa372fcc, type: 2}
