%YAML 1.1
%TAG !u! tag:unity3d.com,2011:
--- !u!114 &11400000
MonoBehaviour:
  m_ObjectHideFlags: 0
  m_CorrespondingSourceObject: {fileID: 0}
  m_PrefabInternal: {fileID: 0}
  m_GameObject: {fileID: 0}
  m_Enabled: 1
  m_EditorHideFlags: 0
  m_Script: {fileID: 11500000, guid: 46cd5fadac123ae4ba131a5972264ce9, type: 3}
  m_Name: Local Player Ally Card Holder
  m_EditorClassIdentifier: 
  handGrid: {fileID: 11400000, guid: 87cd5aeb49014954a90a5507a0290df7, type: 2}
  resourcesGrid: {fileID: 11400000, guid: 78f0e2587b732f64bb0cc114bfa3044f, type: 2}
  downGrid: {fileID: 11400000, guid: dc4200242f68d0a4ca1953bcaa372fcc, type: 2}
