%YAML 1.1
%TAG !u! tag:unity3d.com,2011:
--- !u!114 &11400000
MonoBehaviour:
  m_ObjectHideFlags: 0
  m_CorrespondingSourceObject: {fileID: 0}
  m_PrefabInternal: {fileID: 0}
  m_GameObject: {fileID: 0}
  m_Enabled: 1
  m_EditorHideFlags: 0
  m_Script: {fileID: 11500000, guid: 8a489febd50ed0a49ab533ae16896fa0, type: 3}
  m_Name: Local Player
  m_EditorClassIdentifier: 
  isLocalPlayer: 1
  manaCard: Mana
  team: 2
  userName: Local
  portrait: {fileID: 21300000, guid: 3dce0e9fe90150d4b87880e230fadf3f, type: 3}
  deckCards: []
  health: 20
  statsUI: {fileID: 0}
  resourcesPerTurn: 1
  handLogic: {fileID: 11400000, guid: 3613f72069ee53e4bad1924e9a02da89, type: 2}
  downLogic: {fileID: 11400000, guid: a1919057dfccf47478349c03862893b3, type: 2}
