%YAML 1.1
%TAG !u! tag:unity3d.com,2011:
--- !u!114 &11400000
MonoBehaviour:
  m_ObjectHideFlags: 0
  m_CorrespondingSourceObject: {fileID: 0}
  m_PrefabInstance: {fileID: 0}
  m_PrefabAsset: {fileID: 0}
  m_GameObject: {fileID: 0}
  m_Enabled: 1
  m_EditorHideFlags: 0
  m_Script: {fileID: -847450962, guid: 33f035bd53bea494e9cae9f5258d89d0, type: 3}
  m_Name: English
  m_EditorClassIdentifier: 
  _about: About
  _adaptiveMouseCursor: Adaptive mouse cursor
  _add: Add
  _addAndClose: Add and close
  _areYouSureYouWantToDeleteTheBoard: Are you sure you want to delete the board?
  _areYouSureYouWantToDeleteTheColor: Are you sure you want to delete the color?
  _areYouSureYouWantToDeleteTheGroup: Are you sure you want to delete the group?
  _areYouSureYouWantToDeleteTheTag: Are you sure you want to delete the tag?
  _areYouSureYouWantToDeleteTheTask: Are you sure you want to delete the task?
  _areYouSureYouWantToImportTheDemoContentNoExistingDataWillBeOverwritten: Are you
    sure you want to import the demo content? No existing data will be overwritten.
  _areYouSureYouWantToRemoveTheAsset: Are you sure you want to remove the asset?
  _areYouSureYouWantToResetTheSettings: Are you sure you want to reset the settings?
  _areYouSureYouWantToRunDataRecovery: Are you sure you want to run data recovery?
  _assets: Assets
  _autoDockToBoard: Auto dock with board
  _automaticDataRecovery: Automatic data recovery
  _autoSelectNewTask: Auto select new task
  _back: Back
  _board: Board
  _color: Color
  _colorIconType: Color icon type
  _contactUs: Contact us
  _created: Created
  _dataRecovery: Data recovery
  _dataRecoveryCompleted: Data recovery completed
  _defaultName: Default name
  _defaultGroups: Default groups
  _delete: Delete
  _deleteGroup: Delete group
  _deleteTask: Delete task
  _demoContent: Demo content
  _demoContentWasImportedSuccessfully: Demo content was imported successfully
  _description: Description
  _descriptionHeight: Description height
  _dontOpenAutomaticallyWhenUpdated: Don't open automatically when updated
  _DragThreshold: Drag threshold
  _edit: Edit
  _empty: Empty
  _forceCloseProjectPlanner: Force close project planner
  _fixedDescriptionHeight: Fixed description height
  _generateDataRecoveryLogFiles: Generate data recovery log files
  _goTo: Go to
  _gridLayout: Grid layout
  _group: Group
  _hideEmptyWhenSearching: Hide empty when searching
  _hideUIWhenDragging: Hide UI when dragging
  ? _ifYouFindItEasierToUnderstandHowSomethingWorksWhenYouSeeARealExampleFirstTheDemoContentIsForYouYouCanImportPreMadeBoardsGroupsAndTasksThatAreDesignedToShowcaseAndHighlightTheFeaturesOfProjectPlannerImportingTheDemoContentWillNotOverwriteAnyExistingDataAndCanBeRemovedAgain
  : "If you find it easier to understand how something works when you see a real example
    first the demo content is for you. \n\nYou can import pre-made boards, groups,
    and tasks that are designed to showcase and highlight the features of Project
    Planner. \n\nImporting the demo content will not overwrite any existing data and
    can be removed again."
  ? _ifYouHaveAnyQuestionsRegardingProjectPlannerFeelFreeToContactUsUsingTheFormOnOurWebsiteOrWriteToMailIfTheUnthinkableHappensAndSomethingGoesWrongWeWouldVeryMuchAppreciateIfYouMadeABugReportAndSentItToUs
  : "If you have any questions regarding Project Planner feel free to contact us using
    the form on our website or write to mail@zerorare.com \n\nIf the unthinkable happens
    and something goes wrong, we would very much appreciate if you made a bug report
    and sent it to us."
  ? _ifSomethingIsNotBehavingTheWayYouWantTryToSeeIfThereIsASettingThatCanMakeProjectPlannerFitYouMoreWeProbablyMissedSomethingSoIfYouHaveSuggestionsForNewSettingsPleaseFeelFreeToShareThemWithUs
  : "If something is not behaving the way you want, try to see if there is a setting
    that can make Project Planner fit you more. \n\nWe probably missed something,
    so if you have suggestions for new settings, please feel free to share them with
    us."
  _import: Import
  _importDemoContent: Import demo content
  _language: Language
  _manual: Manual
  _minimumWindowHeight: Minimum window height
  _minimumWindowWidth: Minimum window width
  _moveDown: Move down
  _moveUp: Move up
  _name: Name
  _newBoard: New board
  _newSubtask: New subtask
  _no: No
  _NONAME: NO NAME
  _noTaskSelected: No task selected
  _others: Others
  _ok: OK
  _openManual: Open manual
  _openSettings: Open settings
  _projectPlannerReleaseNotes: Project Planner - Release Notes
  _quickTask: Quick task
  _rename: Rename
  _reset: Reset
  _resetSettings: Reset rettings
  _reportBug: Report bug
  _search: Search
  _searchByColor: Search by color
  _searchByTag: Search by tag
  _settings: Settings
  ? _somethingWentWrongWithProjectPlannerSoWeAutomaticallyRanDataRecoveryToMinimizeTheDataLossWeAreSorryForTheInconvenienceAndAnyDataLossThatMightHaveOccurred
  : Something went wrong with Project Planner so we automatically ran data recovery
    to minimize the data loss. We are sorry for the inconvenience and any data loss
    that might have occurred.
  _showTimestamps: Show timestamps
  _subtasks: Subtasks
  _support: Support
  _supportUndo: Support undo
  _tag: Tag
  _tags: Tags
  _task: Task
  _taskHasAllSelected: Task has all selected
  _taskMinHeight: Task min height
  _thankYouForBuyingProjectPlanner: Thank you for buying Project Planner.
  ? _theManualHasAGettingStartedSectionThatWeRecommendYouReadIfYouAreNewToProjectPlannerTheManualAlsoDescribesEveryFeatureInDetailSoIfYouAreNotSureHowSomethingWorksTheManualCanHelpYouCanFindTheManualInTheTopMenuUnder
  : "The manual has a Getting Started section that we recommend you read if you are
    new to Project Planner. \n\nThe manual also describes every feature in detail
    so if you are not sure how something works the manual can help. \n\nYou can find
    the manual in the top menu under Tools->Project Planner->Help->Manual"
  _utilityWindow: Utility window
  _updated: Updated
  _width: Width
  _weAppreciateYourSupportandHopeYouFindProjectPlannerUseful: We appreciate your support
    and hope you find Project Planner useful.
  _welcome: Welcome
  _working: Working
  _yes: Yes
  _youCanDisableAutomaticDataRecoveryInTheSettings: You can disable automatic data
    recovery in the settings (Tools->Project Planner->Settings).
  _youHaveToCreateALeastOneBoardToUseTheQuickTaskWindow: You have to create a least
    one board to use the quick task window.
  _youHaveToSelectABoardWithAtLeastOneGroupInItToUseTheQuickTaskWindow: You have to
    select a board with at least one group in it to use the quick task window.
