%YAML 1.1
%TAG !u! tag:unity3d.com,2011:
--- !u!114 &11400000
MonoBehaviour:
  m_ObjectHideFlags: 0
  m_CorrespondingSourceObject: {fileID: 0}
  m_PrefabInternal: {fileID: 0}
  m_GameObject: {fileID: 0}
  m_Enabled: 1
  m_EditorHideFlags: 0
  m_Script: {fileID: 11500000, guid: e9041d80ec33df048b033154b1714986, type: 3}
  m_Name: My Hand Card
  m_EditorClassIdentifier: 
  onCurrentCardSet: {fileID: 11400000, guid: 2f3b612a3dfca914890c541f1c52cea1, type: 2}
  currentCard: {fileID: 11400000, guid: 19783180256613b4a94f5d2a0c144e02, type: 2}
  holdingCardState: {fileID: 11400000, guid: 98b9d544556d94946b83e91df01820f5, type: 2}
